<?xml version="1.0" standalone="no"?>
<!DOCTYPE svg PUBLIC "-//W3C//DTD SVG 1.1//EN" "http://www.w3.org/Graphics/SVG/1.1/DTD/svg11.dtd">
<svg width="100%" height="100%" viewBox="0 0 1500 384" version="1.1" xmlns="http://www.w3.org/2000/svg" xmlns:xlink="http://www.w3.org/1999/xlink" xml:space="preserve" style="fill-rule:evenodd;clip-rule:evenodd;stroke-miterlimit:1.41421;">
    <g transform="matrix(4.16667,0,0,4.16667,0,0)">
        <path d="M357.75,55.425C357.75,61.58 352.443,66.567 345.898,66.567L14.099,66.567C7.555,66.567 2.249,61.58 2.249,55.425L2.249,13.756C2.249,7.603 7.555,2.615 14.099,2.615L345.898,2.615C352.443,2.615 357.75,7.603 357.75,13.756L357.75,55.425Z" style="fill:none;stroke-width:2px;stroke:rgb(3,4,4);"/>
        <path d="M34.99,16.576L34.99,26.439L40.459,26.439L40.459,33.714L34.99,33.714L34.99,42.9C34.99,44.005 35.095,44.736 35.307,45.093C35.632,45.645 36.202,45.921 37.016,45.921C37.749,45.921 38.774,45.711 40.092,45.288L40.825,52.147C38.367,52.684 36.072,52.953 33.94,52.953C31.466,52.953 29.643,52.635 28.471,52.002C27.299,51.368 26.433,50.405 25.871,49.113C25.31,47.82 25.029,45.727 25.029,42.834L25.029,33.714L21.367,33.714L21.367,26.439L25.029,26.439L25.029,21.678L34.99,16.576Z" style="fill:rgb(207,204,203);fill-rule:nonzero;"/>
        <path d="M45.293,26.439L54.594,26.439L54.594,30.687C55.489,28.848 56.413,27.583 57.365,26.891C58.317,26.199 59.493,25.853 60.893,25.853C62.358,25.853 63.961,26.309 65.703,27.22L62.627,34.3C61.455,33.812 60.527,33.568 59.843,33.568C58.541,33.568 57.532,34.105 56.816,35.179C55.791,36.693 55.278,39.525 55.278,43.675L55.278,52.367L45.293,52.367L45.293,26.439Z" style="fill:rgb(207,204,203);fill-rule:nonzero;"/>
        <path d="M85.918,40.062C84.55,40.55 83.126,40.982 81.645,41.356C79.627,41.893 78.349,42.422 77.812,42.943C77.258,43.48 76.982,44.09 76.982,44.774C76.982,45.555 77.254,46.194 77.8,46.691C78.345,47.187 79.147,47.435 80.205,47.435C81.311,47.435 82.341,47.167 83.293,46.629C84.245,46.092 84.92,45.437 85.319,44.664C85.718,43.891 85.918,42.886 85.918,41.649L85.918,40.062ZM77.299,34.837L67.802,33.836C68.16,32.176 68.677,30.871 69.353,29.919C70.028,28.966 71.001,28.14 72.27,27.44C73.181,26.936 74.435,26.545 76.03,26.268C77.625,25.992 79.35,25.853 81.206,25.853C84.184,25.853 86.577,26.02 88.383,26.354C90.19,26.688 91.695,27.383 92.9,28.441C93.746,29.173 94.414,30.211 94.902,31.554C95.39,32.896 95.634,34.178 95.634,35.399L95.634,46.849C95.634,48.07 95.711,49.026 95.866,49.718C96.021,50.41 96.358,51.293 96.879,52.367L87.553,52.367C87.179,51.7 86.935,51.191 86.821,50.841C86.707,50.491 86.593,49.942 86.479,49.193C85.177,50.447 83.883,51.341 82.597,51.878C80.839,52.594 78.796,52.953 76.469,52.953C73.377,52.953 71.029,52.237 69.426,50.804C67.822,49.373 67.021,47.606 67.021,45.506C67.021,43.538 67.599,41.918 68.754,40.648C69.91,39.378 72.042,38.435 75.151,37.816C78.878,37.068 81.295,36.543 82.402,36.242C83.508,35.94 84.68,35.545 85.918,35.057C85.918,33.836 85.665,32.982 85.161,32.494C84.656,32.005 83.769,31.761 82.5,31.761C80.872,31.761 79.651,32.022 78.837,32.543C78.203,32.95 77.69,33.714 77.299,34.837Z" style="fill:rgb(207,204,203);fill-rule:nonzero;"/>
        <path d="M118.926,39.33C118.926,37.295 118.494,35.777 117.632,34.777C116.769,33.775 115.679,33.275 114.36,33.275C113.205,33.275 112.236,33.755 111.455,34.715C110.674,35.676 110.283,37.288 110.283,39.549C110.283,41.666 110.686,43.215 111.492,44.201C112.297,45.185 113.294,45.677 114.482,45.677C115.752,45.677 116.81,45.181 117.656,44.188C118.502,43.196 118.926,41.576 118.926,39.33ZM128.886,16.576L128.886,52.367L119.585,52.367L119.585,48.534C118.283,50.162 117.095,51.26 116.021,51.83C114.588,52.578 112.993,52.953 111.235,52.953C107.703,52.953 105.005,51.61 103.142,48.924C101.278,46.239 100.347,42.976 100.347,39.134C100.347,34.837 101.376,31.55 103.435,29.271C105.494,26.993 108.11,25.853 111.284,25.853C112.83,25.853 114.234,26.114 115.496,26.634C116.757,27.155 117.876,27.937 118.853,28.978L118.853,16.576L128.886,16.576Z" style="fill:rgb(207,204,203);fill-rule:nonzero;"/>
        <path d="M153.618,37.108C153.423,35.188 152.906,33.812 152.068,32.982C151.229,32.152 150.127,31.737 148.76,31.737C147.181,31.737 145.919,32.364 144.976,33.617C144.373,34.398 143.991,35.562 143.828,37.108L153.618,37.108ZM163.726,41.869L143.804,41.869C143.982,43.464 144.414,44.652 145.098,45.433C146.058,46.556 147.311,47.118 148.857,47.118C149.834,47.118 150.762,46.874 151.641,46.385C152.178,46.077 152.755,45.531 153.374,44.75L163.164,45.653C161.667,48.257 159.86,50.125 157.744,51.255C155.628,52.387 152.593,52.953 148.638,52.953C145.203,52.953 142.501,52.468 140.532,51.5C138.563,50.532 136.931,48.994 135.637,46.886C134.343,44.778 133.696,42.3 133.696,39.452C133.696,35.399 134.994,32.12 137.59,29.613C140.186,27.107 143.771,25.853 148.345,25.853C152.056,25.853 154.985,26.415 157.134,27.538C159.282,28.661 160.918,30.289 162.041,32.42C163.164,34.553 163.726,37.328 163.726,40.746L163.726,41.869Z" style="fill:rgb(207,204,203);fill-rule:nonzero;"/>
        <path d="M180.278,16.576L180.278,26.439L185.747,26.439L185.747,33.714L180.278,33.714L180.278,42.9C180.278,44.005 180.384,44.736 180.596,45.093C180.921,45.645 181.49,45.921 182.305,45.921C183.037,45.921 184.063,45.711 185.381,45.288L186.113,52.147C183.655,52.684 181.36,52.953 179.229,52.953C176.754,52.953 174.932,52.635 173.76,52.002C172.588,51.368 171.721,50.405 171.16,49.113C170.598,47.82 170.317,45.727 170.317,42.834L170.317,33.714L166.655,33.714L166.655,26.439L170.317,26.439L170.317,21.678L180.278,16.576Z" style="fill:rgb(35,31,32);fill-rule:nonzero;"/>
        <path d="M209.16,37.108C208.965,35.188 208.448,33.812 207.609,32.982C206.771,32.152 205.669,31.737 204.302,31.737C202.723,31.737 201.461,32.364 200.518,33.617C199.915,34.398 199.532,35.562 199.37,37.108L209.16,37.108ZM219.268,41.869L199.346,41.869C199.524,43.464 199.956,44.652 200.64,45.433C201.6,46.556 202.853,47.118 204.399,47.118C205.376,47.118 206.304,46.874 207.183,46.385C207.72,46.077 208.297,45.531 208.916,44.75L218.706,45.653C217.208,48.257 215.401,50.125 213.286,51.255C211.17,52.387 208.135,52.953 204.18,52.953C200.745,52.953 198.043,52.468 196.074,51.5C194.104,50.532 192.473,48.994 191.18,46.886C189.885,44.778 189.238,42.3 189.238,39.452C189.238,35.399 190.536,32.12 193.133,29.613C195.729,27.107 199.313,25.853 203.887,25.853C207.598,25.853 210.527,26.415 212.676,27.538C214.824,28.661 216.46,30.289 217.583,32.42C218.706,34.553 219.268,37.328 219.268,40.746L219.268,41.869Z" style="fill:rgb(35,31,32);fill-rule:nonzero;"/>
        <path d="M222.075,45.165L231.938,44.237C232.345,45.409 232.915,46.248 233.647,46.752C234.38,47.256 235.356,47.508 236.577,47.508C237.911,47.508 238.945,47.224 239.678,46.655C240.247,46.233 240.532,45.705 240.532,45.071C240.532,44.356 240.157,43.803 239.409,43.413C238.872,43.136 237.447,42.795 235.137,42.389C231.686,41.788 229.289,41.231 227.947,40.718C226.604,40.207 225.473,39.34 224.553,38.121C223.634,36.902 223.174,35.511 223.174,33.951C223.174,32.243 223.67,30.772 224.663,29.536C225.655,28.3 227.022,27.378 228.765,26.768C230.506,26.158 232.842,25.853 235.771,25.853C238.863,25.853 241.146,26.089 242.619,26.561C244.093,27.033 245.321,27.766 246.307,28.758C247.291,29.752 248.108,31.094 248.76,32.787L239.336,33.714C239.092,32.884 238.685,32.274 238.115,31.883C237.334,31.363 236.39,31.102 235.283,31.102C234.16,31.102 233.342,31.301 232.83,31.7C232.316,32.098 232.061,32.581 232.061,33.15C232.061,33.784 232.386,34.263 233.037,34.588C233.688,34.913 235.104,35.206 237.285,35.465C240.589,35.839 243.047,36.36 244.658,37.027C246.27,37.694 247.502,38.644 248.357,39.88C249.211,41.116 249.639,42.474 249.639,43.953C249.639,45.449 249.188,46.905 248.283,48.319C247.381,49.734 245.956,50.86 244.012,51.697C242.066,52.534 239.417,52.953 236.064,52.953C231.328,52.953 227.955,52.278 225.945,50.926C223.935,49.576 222.645,47.655 222.075,45.165Z" style="fill:rgb(35,31,32);fill-rule:nonzero;"/>
        <path d="M266.362,16.576L266.362,26.439L271.831,26.439L271.831,33.714L266.362,33.714L266.362,42.9C266.362,44.005 266.468,44.736 266.68,45.093C267.005,45.645 267.574,45.921 268.389,45.921C269.121,45.921 270.146,45.711 271.465,45.288L272.197,52.147C269.739,52.684 267.444,52.953 265.313,52.953C262.838,52.953 261.015,52.635 259.844,52.002C258.672,51.368 257.806,50.405 257.243,49.113C256.683,47.82 256.401,45.727 256.401,42.834L256.401,33.714L252.739,33.714L252.739,26.439L256.401,26.439L256.401,21.678L266.362,16.576Z" style="fill:rgb(35,31,32);fill-rule:nonzero;"/>
        <path d="M295.244,37.108C295.049,35.188 294.532,33.812 293.693,32.982C292.855,32.152 291.753,31.737 290.386,31.737C288.807,31.737 287.545,32.364 286.602,33.617C285.999,34.398 285.616,35.562 285.454,37.108L295.244,37.108ZM305.352,41.869L285.43,41.869C285.608,43.464 286.04,44.652 286.724,45.433C287.684,46.556 288.937,47.118 290.483,47.118C291.46,47.118 292.388,46.874 293.267,46.385C293.804,46.077 294.381,45.531 295,44.75L304.79,45.653C303.292,48.257 301.485,50.125 299.37,51.255C297.254,52.387 294.219,52.953 290.264,52.953C286.829,52.953 284.127,52.468 282.158,51.5C280.188,50.532 278.557,48.994 277.264,46.886C275.969,44.778 275.322,42.3 275.322,39.452C275.322,35.399 276.62,32.12 279.217,29.613C281.813,27.107 285.396,25.853 289.971,25.853C293.682,25.853 296.611,26.415 298.76,27.538C300.908,28.661 302.544,30.289 303.667,32.42C304.79,34.553 305.352,37.328 305.352,40.746L305.352,41.869Z" style="fill:rgb(35,31,32);fill-rule:nonzero;"/>
        <path d="M327.251,39.33C327.251,37.295 326.819,35.777 325.957,34.777C325.094,33.775 324.004,33.275 322.686,33.275C321.529,33.275 320.562,33.755 319.78,34.715C318.999,35.676 318.608,37.288 318.608,39.549C318.608,41.666 319.012,43.215 319.816,44.201C320.623,45.185 321.619,45.677 322.808,45.677C324.077,45.677 325.135,45.181 325.981,44.188C326.827,43.196 327.251,41.576 327.251,39.33ZM337.212,16.576L337.212,52.367L327.91,52.367L327.91,48.534C326.607,50.162 325.42,51.26 324.346,51.83C322.913,52.578 321.318,52.953 319.561,52.953C316.028,52.953 313.331,51.61 311.467,48.924C309.604,46.239 308.672,42.976 308.672,39.134C308.672,34.837 309.701,31.55 311.76,29.271C313.819,26.993 316.436,25.853 319.609,25.853C321.155,25.853 322.56,26.114 323.82,26.634C325.082,27.155 326.201,27.937 327.178,28.978L327.178,16.576L337.212,16.576Z" style="fill:rgb(35,31,32);fill-rule:nonzero;"/>
        <path d="M13.961,75.002L22.702,75.002L22.702,77.3L19.77,77.3L19.77,84.308L16.894,84.308L16.894,77.3L13.961,77.3L13.961,75.002Z" style="fill:rgb(35,31,32);fill-rule:nonzero;"/>
        <path d="M28.23,78.773L29.442,78.773C29.573,78.773 29.827,78.731 30.204,78.646C30.394,78.608 30.549,78.51 30.67,78.354C30.791,78.198 30.851,78.017 30.851,77.814C30.851,77.514 30.756,77.284 30.565,77.123C30.375,76.961 30.018,76.881 29.493,76.881L28.23,76.881L28.23,78.773ZM25.341,84.308L25.341,75.002L30.134,75.002C31.022,75.002 31.702,75.079 32.171,75.231C32.641,75.383 33.02,75.666 33.308,76.079C33.595,76.491 33.739,76.994 33.739,77.585C33.739,78.102 33.629,78.547 33.409,78.922C33.189,79.296 32.886,79.6 32.501,79.834C32.255,79.981 31.918,80.104 31.491,80.201C31.834,80.316 32.083,80.43 32.239,80.544C32.345,80.621 32.499,80.784 32.699,81.034C32.9,81.284 33.035,81.476 33.102,81.612L34.495,84.308L31.246,84.308L29.709,81.464C29.514,81.096 29.34,80.857 29.188,80.748C28.98,80.603 28.746,80.531 28.483,80.531L28.23,80.531L28.23,84.308L25.341,84.308Z" style="fill:rgb(35,31,32);fill-rule:nonzero;"/>
        <path d="M41.84,80.759L40.813,77.415L39.796,80.759L41.84,80.759ZM42.437,82.772L39.172,82.772L38.718,84.308L35.782,84.308L39.28,75.002L42.417,75.002L45.913,84.308L42.902,84.308L42.437,82.772Z" style="fill:rgb(35,31,32);fill-rule:nonzero;"/>
        <path d="M51.041,77.11L51.041,82.195L51.745,82.195C52.346,82.195 52.773,82.127 53.027,81.995C53.281,81.861 53.48,81.628 53.624,81.296C53.768,80.964 53.84,80.425 53.84,79.681C53.84,78.695 53.679,78.02 53.357,77.656C53.036,77.292 52.502,77.11 51.758,77.11L51.041,77.11ZM48.165,75.002L52.437,75.002C53.279,75.002 53.96,75.117 54.478,75.345C54.996,75.574 55.425,75.902 55.763,76.33C56.102,76.756 56.347,77.253 56.5,77.821C56.652,78.388 56.728,78.989 56.728,79.624C56.728,80.618 56.615,81.389 56.389,81.937C56.162,82.485 55.848,82.945 55.446,83.315C55.044,83.685 54.612,83.931 54.151,84.054C53.521,84.223 52.949,84.308 52.437,84.308L48.165,84.308L48.165,75.002Z" style="fill:rgb(35,31,32);fill-rule:nonzero;"/>
        <path d="M59.533,75.002L67.239,75.002L67.239,76.99L62.415,76.99L62.415,78.468L66.89,78.468L66.89,80.367L62.415,80.367L62.415,82.201L67.378,82.201L67.378,84.308L59.533,84.308L59.533,75.002Z" style="fill:rgb(35,31,32);fill-rule:nonzero;"/>
        <path d="M78.738,78.97L79.442,78.97C79.997,78.97 80.386,78.874 80.61,78.681C80.835,78.489 80.947,78.242 80.947,77.941C80.947,77.65 80.85,77.402 80.655,77.199C80.46,76.996 80.094,76.894 79.557,76.894L78.738,76.894L78.738,78.97ZM75.85,75.002L80.629,75.002C81.67,75.002 82.45,75.25 82.969,75.746C83.487,76.24 83.746,76.945 83.746,77.859C83.746,78.798 83.464,79.533 82.898,80.062C82.334,80.59 81.472,80.855 80.312,80.855L78.738,80.855L78.738,84.308L75.85,84.308L75.85,75.002Z" style="fill:rgb(35,31,32);fill-rule:nonzero;"/>
        <path d="M89.477,78.773L90.689,78.773C90.821,78.773 91.075,78.731 91.451,78.646C91.642,78.608 91.797,78.51 91.918,78.354C92.038,78.198 92.099,78.017 92.099,77.814C92.099,77.514 92.003,77.284 91.813,77.123C91.623,76.961 91.265,76.881 90.74,76.881L89.477,76.881L89.477,78.773ZM86.589,84.308L86.589,75.002L91.381,75.002C92.27,75.002 92.949,75.079 93.419,75.231C93.889,75.383 94.268,75.666 94.555,76.079C94.843,76.491 94.987,76.994 94.987,77.585C94.987,78.102 94.877,78.547 94.657,78.922C94.437,79.296 94.134,79.6 93.749,79.834C93.503,79.981 93.166,80.104 92.738,80.201C93.081,80.316 93.331,80.43 93.487,80.544C93.593,80.621 93.746,80.784 93.947,81.034C94.148,81.284 94.282,81.476 94.35,81.612L95.742,84.308L92.493,84.308L90.956,81.464C90.761,81.096 90.588,80.857 90.436,80.748C90.228,80.603 89.993,80.531 89.731,80.531L89.477,80.531L89.477,84.308L86.589,84.308Z" style="fill:rgb(35,31,32);fill-rule:nonzero;"/>
        <rect x="98.077" y="75.002" width="2.882" height="9.306" style="fill:rgb(35,31,32);fill-rule:nonzero;"/>
        <path d="M110.518,80.5L113.038,81.261C112.868,81.968 112.602,82.558 112.238,83.033C111.874,83.506 111.422,83.864 110.883,84.105C110.343,84.346 109.656,84.466 108.823,84.466C107.812,84.466 106.985,84.32 106.344,84.026C105.703,83.732 105.149,83.215 104.684,82.475C104.219,81.735 103.986,80.788 103.986,79.633C103.986,78.093 104.396,76.911 105.214,76.084C106.033,75.257 107.191,74.843 108.689,74.843C109.862,74.843 110.783,75.081 111.454,75.554C112.125,76.029 112.623,76.756 112.949,77.738L110.41,78.303C110.321,78.02 110.228,77.812 110.13,77.681C109.97,77.461 109.773,77.292 109.54,77.173C109.307,77.055 109.047,76.996 108.759,76.996C108.107,76.996 107.608,77.257 107.261,77.782C106.999,78.17 106.868,78.782 106.868,79.614C106.868,80.645 107.024,81.352 107.337,81.735C107.65,82.118 108.091,82.308 108.658,82.308C109.208,82.308 109.624,82.154 109.905,81.845C110.187,81.537 110.391,81.087 110.518,80.5Z" style="fill:rgb(35,31,32);fill-rule:nonzero;"/>
        <path d="M115.728,75.002L123.434,75.002L123.434,76.99L118.609,76.99L118.609,78.468L123.084,78.468L123.084,80.367L118.609,80.367L118.609,82.201L123.573,82.201L123.573,84.308L115.728,84.308L115.728,75.002Z" style="fill:rgb(35,31,32);fill-rule:nonzero;"/>
        <path d="M125.92,81.23L128.656,81.058C128.715,81.502 128.836,81.841 129.018,82.074C129.313,82.451 129.737,82.638 130.287,82.638C130.698,82.638 131.015,82.542 131.236,82.35C131.459,82.158 131.57,81.934 131.57,81.68C131.57,81.439 131.464,81.223 131.252,81.033C131.041,80.842 130.55,80.663 129.78,80.494C128.519,80.209 127.62,79.834 127.082,79.363C126.541,78.894 126.27,78.294 126.27,77.567C126.27,77.088 126.408,76.637 126.686,76.211C126.962,75.787 127.379,75.452 127.936,75.209C128.492,74.965 129.255,74.843 130.224,74.843C131.413,74.843 132.32,75.065 132.944,75.507C133.568,75.95 133.939,76.653 134.058,77.618L131.348,77.777C131.276,77.357 131.125,77.052 130.894,76.863C130.662,76.671 130.345,76.577 129.938,76.577C129.604,76.577 129.353,76.648 129.183,76.79C129.014,76.931 128.929,77.103 128.929,77.306C128.929,77.455 128.998,77.588 129.139,77.707C129.274,77.83 129.595,77.944 130.104,78.049C131.36,78.32 132.261,78.594 132.805,78.872C133.348,79.149 133.744,79.493 133.991,79.903C134.239,80.313 134.363,80.773 134.363,81.281C134.363,81.876 134.198,82.427 133.868,82.931C133.538,83.434 133.076,83.816 132.484,84.077C131.892,84.336 131.145,84.466 130.243,84.466C128.66,84.466 127.564,84.162 126.955,83.552C126.346,82.943 126.001,82.169 125.92,81.23Z" style="fill:rgb(35,31,32);fill-rule:nonzero;"/>
        <path d="M145.659,77.11L145.659,82.195L146.364,82.195C146.965,82.195 147.392,82.127 147.646,81.995C147.9,81.861 148.099,81.628 148.243,81.296C148.387,80.964 148.458,80.425 148.458,79.681C148.458,78.695 148.298,78.02 147.976,77.656C147.654,77.292 147.121,77.11 146.376,77.11L145.659,77.11ZM142.784,75.002L147.056,75.002C147.898,75.002 148.578,75.117 149.096,75.345C149.615,75.574 150.043,75.902 150.382,76.33C150.72,76.756 150.966,77.253 151.118,77.821C151.271,78.388 151.347,78.989 151.347,79.624C151.347,80.618 151.233,81.389 151.007,81.937C150.781,82.485 150.466,82.945 150.064,83.315C149.663,83.685 149.231,83.931 148.77,84.054C148.139,84.223 147.568,84.308 147.056,84.308L142.784,84.308L142.784,75.002Z" style="fill:rgb(35,31,32);fill-rule:nonzero;"/>
        <path d="M154.151,75.002L161.857,75.002L161.857,76.99L157.033,76.99L157.033,78.468L161.508,78.468L161.508,80.367L157.033,80.367L157.033,82.201L161.997,82.201L161.997,84.308L154.151,84.308L154.151,75.002Z" style="fill:rgb(35,31,32);fill-rule:nonzero;"/>
        <path d="M164.846,75.002L167.721,75.002L167.721,82.017L172.209,82.017L172.209,84.308L164.846,84.308L164.846,75.002Z" style="fill:rgb(35,31,32);fill-rule:nonzero;"/>
        <rect x="174.931" y="75.002" width="2.882" height="9.306" style="fill:rgb(35,31,32);fill-rule:nonzero;"/>
        <path d="M180.262,75.002L183.268,75.002L185.362,81.699L187.43,75.002L190.348,75.002L186.893,84.308L183.776,84.308L180.262,75.002Z" style="fill:rgb(35,31,32);fill-rule:nonzero;"/>
        <path d="M192.581,75.002L200.287,75.002L200.287,76.99L195.463,76.99L195.463,78.468L199.938,78.468L199.938,80.367L195.463,80.367L195.463,82.201L200.427,82.201L200.427,84.308L192.581,84.308L192.581,75.002Z" style="fill:rgb(35,31,32);fill-rule:nonzero;"/>
        <path d="M206.202,78.773L207.414,78.773C207.546,78.773 207.8,78.731 208.176,78.646C208.367,78.608 208.521,78.51 208.643,78.354C208.764,78.198 208.824,78.017 208.824,77.814C208.824,77.514 208.729,77.284 208.538,77.123C208.348,76.961 207.99,76.881 207.465,76.881L206.202,76.881L206.202,78.773ZM203.314,84.308L203.314,75.002L208.106,75.002C208.995,75.002 209.674,75.079 210.145,75.231C210.613,75.383 210.992,75.666 211.28,76.079C211.568,76.491 211.712,76.994 211.712,77.585C211.712,78.102 211.602,78.547 211.382,78.922C211.162,79.296 210.859,79.6 210.474,79.834C210.229,79.981 209.891,80.104 209.463,80.201C209.807,80.316 210.056,80.43 210.212,80.544C210.318,80.621 210.471,80.784 210.672,81.034C210.873,81.284 211.008,81.476 211.074,81.612L212.467,84.308L209.219,84.308L207.682,81.464C207.486,81.096 207.313,80.857 207.16,80.748C206.953,80.603 206.719,80.531 206.456,80.531L206.202,80.531L206.202,84.308L203.314,84.308Z" style="fill:rgb(35,31,32);fill-rule:nonzero;"/>
        <path d="M214.682,75.002L222.387,75.002L222.387,76.99L217.563,76.99L217.563,78.468L222.038,78.468L222.038,80.367L217.563,80.367L217.563,82.201L222.527,82.201L222.527,84.308L214.682,84.308L214.682,75.002Z" style="fill:rgb(35,31,32);fill-rule:nonzero;"/>
        <path d="M228.289,77.11L228.289,82.195L228.994,82.195C229.595,82.195 230.021,82.127 230.275,81.995C230.529,81.861 230.729,81.628 230.873,81.296C231.017,80.964 231.088,80.425 231.088,79.681C231.088,78.695 230.928,78.02 230.605,77.656C230.284,77.292 229.751,77.11 229.006,77.11L228.289,77.11ZM225.414,75.002L229.686,75.002C230.527,75.002 231.208,75.117 231.727,75.345C232.244,75.574 232.674,75.902 233.012,76.33C233.35,76.756 233.596,77.253 233.748,77.821C233.9,78.388 233.977,78.989 233.977,79.624C233.977,80.618 233.863,81.389 233.637,81.937C233.41,82.485 233.096,82.945 232.694,83.315C232.293,83.685 231.861,83.931 231.399,84.054C230.77,84.223 230.197,84.308 229.686,84.308L225.414,84.308L225.414,75.002Z" style="fill:rgb(35,31,32);fill-rule:nonzero;"/>
        <path d="M242.441,75.002L245.127,75.002L248.631,80.151L248.631,75.002L251.342,75.002L251.342,84.308L248.631,84.308L245.146,79.199L245.146,84.308L242.441,84.308L242.441,75.002Z" style="fill:rgb(35,31,32);fill-rule:nonzero;"/>
        <path d="M259.551,80.759L258.523,77.415L257.506,80.759L259.551,80.759ZM260.146,82.772L256.881,82.772L256.428,84.308L253.492,84.308L256.989,75.002L260.127,75.002L263.623,84.308L260.611,84.308L260.146,82.772Z" style="fill:rgb(35,31,32);fill-rule:nonzero;"/>
        <path d="M264.289,75.002L273.029,75.002L273.029,77.3L270.096,77.3L270.096,84.308L267.221,84.308L267.221,77.3L264.289,77.3L264.289,75.002Z" style="fill:rgb(35,31,32);fill-rule:nonzero;"/>
        <rect x="275.744" y="75.002" width="2.883" height="9.306" style="fill:rgb(35,31,32);fill-rule:nonzero;"/>
        <path d="M284.502,79.674C284.502,80.614 284.678,81.289 285.025,81.699C285.375,82.11 285.85,82.315 286.451,82.315C287.068,82.315 287.547,82.114 287.887,81.712C288.225,81.31 288.395,80.588 288.395,79.547C288.395,78.671 288.217,78.032 287.863,77.627C287.51,77.223 287.031,77.021 286.426,77.021C285.846,77.021 285.381,77.226 285.029,77.636C284.678,78.047 284.502,78.726 284.502,79.674ZM281.627,79.662C281.627,78.142 282.051,76.959 282.896,76.113C283.742,75.267 284.922,74.843 286.432,74.843C287.98,74.843 289.174,75.259 290.012,76.091C290.85,76.922 291.27,78.087 291.27,79.585C291.27,80.673 291.086,81.565 290.721,82.261C290.354,82.958 289.824,83.499 289.133,83.886C288.441,84.273 287.578,84.466 286.547,84.466C285.496,84.466 284.629,84.299 283.941,83.965C283.254,83.631 282.695,83.102 282.268,82.378C281.84,81.655 281.627,80.75 281.627,79.662Z" style="fill:rgb(35,31,32);fill-rule:nonzero;"/>
        <path d="M294.137,75.002L296.822,75.002L300.326,80.151L300.326,75.002L303.037,75.002L303.037,84.308L300.326,84.308L296.842,79.199L296.842,84.308L294.137,84.308L294.137,75.002Z" style="fill:rgb(35,31,32);fill-rule:nonzero;"/>
        <path d="M305.289,75.002L308.02,75.002L309.004,80.212L310.443,75.002L313.164,75.002L314.607,80.205L315.592,75.002L318.309,75.002L316.256,84.308L313.438,84.308L311.805,78.449L310.18,84.308L307.359,84.308L305.289,75.002Z" style="fill:rgb(35,31,32);fill-rule:nonzero;"/>
        <rect x="320.662" y="75.002" width="2.881" height="9.306" style="fill:rgb(35,31,32);fill-rule:nonzero;"/>
        <path d="M329.818,77.11L329.818,82.195L330.523,82.195C331.125,82.195 331.553,82.127 331.807,81.995C332.061,81.861 332.26,81.628 332.402,81.296C332.547,80.964 332.619,80.425 332.619,79.681C332.619,78.695 332.457,78.02 332.137,77.656C331.814,77.292 331.281,77.11 330.537,77.11L329.818,77.11ZM326.943,75.002L331.215,75.002C332.059,75.002 332.738,75.117 333.256,75.345C333.775,75.574 334.203,75.902 334.541,76.33C334.881,76.756 335.125,77.253 335.277,77.821C335.43,78.388 335.506,78.989 335.506,79.624C335.506,80.618 335.395,81.389 335.168,81.937C334.941,82.485 334.627,82.945 334.225,83.315C333.822,83.685 333.391,83.931 332.93,84.054C332.299,84.223 331.729,84.308 331.215,84.308L326.943,84.308L326.943,75.002Z" style="fill:rgb(35,31,32);fill-rule:nonzero;"/>
        <path d="M338.311,75.002L346.018,75.002L346.018,76.99L341.193,76.99L341.193,78.468L345.668,78.468L345.668,80.367L341.193,80.367L341.193,82.201L346.156,82.201L346.156,84.308L338.311,84.308L338.311,75.002Z" style="fill:rgb(35,31,32);fill-rule:nonzero;"/>
    </g>
</svg>
