<?xml version="1.0" encoding="UTF-8"?>
<svg width="290px" height="68px" viewBox="0 0 290 68" version="1.1" xmlns="http://www.w3.org/2000/svg" xmlns:xlink="http://www.w3.org/1999/xlink">
    <!-- Generator: Sketch 41.2 (35397) - http://www.bohemiancoding.com/sketch -->
    <title>Page 1</title>
    <desc>Created with Sketch.</desc>
    <defs></defs>
    <g id="Homepage" stroke="none" stroke-width="1" fill="none" fill-rule="evenodd">
        <g id="homepage-wide-bp-featured" transform="translate(-131.000000, -44.000000)">
            <g id="header" transform="translate(0.000000, -44.000000)">
                <g id="Page-1" transform="translate(132.000000, 89.000000)">
                    <path d="M288,42.9404719 C288,47.9442716 283.700658,52 278.39838,52 L9.59918987,52 C4.29772152,52 0,47.9442716 0,42.9404719 L0,9.05952809 C0,4.05654152 4.29772152,0 9.59918987,0 L278.39838,0 C283.700658,0 288,4.05654152 288,9.05952809 L288,42.9404719 L288,42.9404719 Z" id="Stroke-3" stroke="#FFFFFF" stroke-width="2"></path>
                    <path d="M27.2019735,11 L27.2019735,19.1339858 L31.6990441,19.1339858 L31.6990441,25.1344806 L27.2019735,25.1344806 L27.2019735,32.7093218 C27.2019735,33.6214366 27.2883133,34.2234654 27.4626375,34.5187069 C27.730702,34.9731149 28.1985816,35.2015559 28.8679206,35.2015559 C29.4706547,35.2015559 30.3134957,35.0275449 31.3980882,34.6786981 L32,40.3352943 C29.9788262,40.7781565 28.0916847,41 26.3385754,41 C24.304245,41 22.8052215,40.7385711 21.8415048,40.2157132 C20.8786103,39.6928554 20.1656902,38.8986722 19.7035667,37.8331638 C19.2422654,36.7668307 19.0112036,35.04074 19.0112036,32.6548918 L19.0112036,25.1344806 L16,25.1344806 L16,19.1339858 L19.0112036,19.1339858 L19.0112036,15.2084284 L27.2019735,11 Z" id="Fill-5" fill="#CCCCCC"></path>
                    <path d="M36,19.4862337 L43.7478687,19.4862337 L43.7478687,23.011013 C44.4933366,21.4851022 45.2629593,20.4354681 46.055904,19.8612808 C46.8488486,19.2870936 47.8283684,19 48.9944635,19 C50.2138658,19 51.5490446,19.3783661 53,20.1342687 L50.4379226,26.008901 C49.4617344,25.6039828 48.68878,25.4015237 48.1198922,25.4015237 C47.0354238,25.4015237 46.1941695,25.8470996 45.5977952,26.7382515 C44.744047,27.9944935 44.3167565,30.3443464 44.3167565,33.7878102 L44.3167565,41 L36,41 L36,19.4862337 Z" id="Fill-7" fill="#CCCCCC"></path>
                    <path d="M69.1886931,30.5349815 C68.0898922,30.9311439 66.9444705,31.281845 65.7548396,31.5854613 C64.1319579,32.0214022 63.1054994,32.4508487 62.6738563,32.8738007 C62.2285485,33.3097417 62.0058946,33.8049446 62.0058946,34.3602214 C62.0058946,34.9942435 62.2253332,35.5129889 62.6634068,35.9164576 C63.1014803,36.3191144 63.7461317,36.5204428 64.596557,36.5204428 C65.4863688,36.5204428 66.3134838,36.3020664 67.0787059,35.8661255 C67.8447317,35.4301845 68.3872999,34.8984502 68.708018,34.2709225 C69.0279322,33.6433948 69.1886931,32.8275277 69.1886931,31.823321 L69.1886931,30.5349815 Z M62.2615045,26.2932841 L54.6277715,25.4806642 C54.9155335,24.1330627 55.3302967,23.0736531 55.8736687,22.3 C56.4162369,21.5271587 57.1983388,20.8566052 58.2191707,20.2883395 C58.9514368,19.8791882 59.9586041,19.5617712 61.2406725,19.3369004 C62.522741,19.1128413 63.9101078,19 65.4011655,19 C67.7956996,19 69.7184004,19.135572 71.1708755,19.4067159 C72.6225467,19.677048 73.8330766,20.2420664 74.8008574,21.1009594 C75.48168,21.695203 76.0178177,22.5378598 76.4100744,23.6281181 C76.8031348,24.7175646 76.9992632,25.7583026 76.9992632,26.7495203 L76.9992632,36.0447232 C76.9992632,37.035941 77.0611561,37.8120295 77.1857459,38.3738007 C77.3095318,38.935572 77.5812178,39.6515867 78,40.5242804 L70.5037176,40.5242804 C70.2022908,39.9828044 70.0061625,39.5695941 69.9145288,39.2854613 C69.822895,39.0013284 69.7312613,38.5556458 69.6404314,37.9476015 C68.5930739,38.9656089 67.5529506,39.6913653 66.5200616,40.1273063 C65.106973,40.7085609 63.4648001,41 61.5943466,41 C59.1081787,41 57.2208453,40.4187454 55.9323464,39.2554244 C54.6438475,38.0937269 54,36.659262 54,34.9544649 C54,33.3568266 54.4637953,32.0408856 55.3929935,31.0107011 C56.3213879,29.9797048 58.0359033,29.2141697 60.5341282,28.7116605 C63.5299082,28.104428 65.4727041,27.677417 66.3625159,27.4338745 C67.2523277,27.1887085 68.1943868,26.8680443 69.1886931,26.4718819 C69.1886931,25.4806642 68.9861344,24.7873801 68.580213,24.3912177 C68.1742916,23.9942435 67.4621207,23.7961624 66.4412888,23.7961624 C65.1326948,23.7961624 64.1512492,24.0080443 63.497756,24.4301845 C62.9873401,24.7614022 62.5749883,25.3816236 62.2615045,26.2932841 L62.2615045,26.2932841 Z" id="Fill-9" fill="#CCCCCC"></path>
                    <path d="M94.9725648,29.7651538 C94.9725648,28.0877203 94.6244219,26.8350056 93.9297477,26.0103087 C93.2342677,25.1839624 92.3558514,24.7716139 91.2936931,24.7716139 C90.3620883,24.7716139 89.5819902,25.1682932 88.951787,25.9600022 C88.3223896,26.7525359 88.007288,28.0811227 88.007288,29.9465871 C88.007288,31.6916458 88.3320603,32.9699261 88.9816048,33.7822525 C89.6311493,34.5937543 90.4338122,35.0003299 91.3920112,35.0003299 C92.4146811,35.0003299 93.267309,34.5912802 93.949089,33.7715315 C94.6316748,32.9534321 94.9725648,31.6174231 94.9725648,29.7651538 L94.9725648,29.7651538 Z M103,11 L103,40.5167276 L95.503644,40.5167276 L95.503644,37.3556643 C94.4543798,38.6982709 93.4969867,39.6046128 92.6314646,40.0738654 C91.4766293,40.6907387 90.1912404,41 88.7752978,41 C85.9281009,41 83.7546251,39.892432 82.2524527,37.6781208 C80.7510862,35.4629849 80,32.7719988 80,29.6043379 C80,26.0606152 80.8292572,23.3498364 82.4885774,21.4695274 C84.1478977,19.5908679 86.2569026,18.6507134 88.8139804,18.6507134 C90.0598809,18.6507134 91.1913455,18.8659593 92.2083742,19.2956264 C93.2245971,19.7252935 94.126384,20.3693818 94.9137351,21.2278912 L94.9137351,11 L103,11 Z" id="Fill-11" fill="#CCCCCC"></path>
                    <path d="M123.585634,28.1369004 C123.423291,26.5782288 122.992874,25.4611808 122.295215,24.7873801 C121.596723,24.1135793 120.679277,23.776679 119.54121,23.776679 C118.226648,23.776679 117.175997,24.2856827 116.39009,25.3028782 C115.888907,25.9369004 115.570881,26.881845 115.435179,28.1369004 L123.585634,28.1369004 Z M132,32.0019188 L115.415199,32.0019188 C115.563389,33.2967528 115.923041,34.2611808 116.491658,34.895203 C117.290885,35.8068635 118.334876,36.2630996 119.621965,36.2630996 C120.435346,36.2630996 121.207932,36.0650185 121.938892,35.6680443 C122.386793,35.4180074 122.867162,34.9747601 123.382497,34.340738 L131.532951,35.0738007 C130.285824,37.1877491 128.782277,38.7042066 127.020647,39.6215498 C125.259016,40.5405166 122.732292,41 119.439642,41 C116.579906,41 114.330414,40.6062731 112.691165,39.8204428 C111.051084,39.0346125 109.69323,37.7860517 108.615938,36.0747601 C107.538646,34.3634686 107,32.3518081 107,30.0397786 C107,26.7495203 108.080622,24.0876015 110.241866,22.0523985 C112.40311,20.0180074 115.387725,19 119.195711,19 C122.285224,19 124.7237,19.4562362 126.512804,20.3678967 C128.301076,21.2795572 129.663092,22.6011808 130.598022,24.3319557 C131.532951,26.0627306 132,28.3154982 132,31.0902583 L132,32.0019188 Z" id="Fill-13" fill="#CCCCCC"></path>
                    <path d="M145.201973,11 L145.201973,19.1339858 L149.699044,19.1339858 L149.699044,25.1344806 L145.201973,25.1344806 L145.201973,32.7093218 C145.201973,33.6214366 145.288313,34.2234654 145.462637,34.5187069 C145.730702,34.9731149 146.198582,35.2015559 146.867921,35.2015559 C147.470655,35.2015559 148.313496,35.0275449 149.398088,34.6786981 L150,40.3352943 C147.978826,40.7781565 146.091685,41 144.338575,41 C142.304245,41 140.805222,40.7385711 139.841505,40.2157132 C138.87861,39.6928554 138.16569,38.8986722 137.703567,37.8331638 C137.242265,36.7668307 137.011204,35.04074 137.011204,32.6548918 L137.011204,25.1344806 L134,25.1344806 L134,19.1339858 L137.011204,19.1339858 L137.011204,15.2084284 L145.201973,11 Z" id="Fill-15" fill="#FFFFFF"></path>
                    <path d="M167.585634,28.1369004 C167.423291,26.5782288 166.992874,25.4611808 166.294382,24.7873801 C165.596723,24.1135793 164.679277,23.776679 163.54121,23.776679 C162.226648,23.776679 161.175997,24.2856827 160.39009,25.3028782 C159.888907,25.9369004 159.570049,26.881845 159.435179,28.1369004 L167.585634,28.1369004 Z M176,32.0019188 L159.415199,32.0019188 C159.563389,33.2967528 159.923041,34.2611808 160.491658,34.895203 C161.290885,35.8068635 162.334044,36.2630996 163.621965,36.2630996 C164.435346,36.2630996 165.207932,36.0650185 165.938892,35.6680443 C166.386793,35.4180074 166.867162,34.9747601 167.382497,34.340738 L175.532951,35.0738007 C174.285824,37.1877491 172.781445,38.7042066 171.020647,39.6215498 C169.259016,40.5405166 166.732292,41 163.439642,41 C160.579906,41 158.330414,40.6062731 156.691165,39.8204428 C155.051084,39.0346125 153.69323,37.7860517 152.61677,36.0747601 C151.538646,34.3634686 151,32.3518081 151,30.0397786 C151,26.7495203 152.080622,24.0876015 154.242699,22.0523985 C156.40311,20.0180074 159.386893,19 163.195711,19 C166.285224,19 168.7237,19.4562362 170.512804,20.3678967 C172.301076,21.2795572 173.663092,22.6011808 174.598022,24.3319557 C175.532951,26.0627306 176,28.3154982 176,31.0902583 L176,32.0019188 Z" id="Fill-17" fill="#FFFFFF"></path>
                    <path d="M178,34.6776384 L186.2302,33.9242804 C186.569822,34.8757196 187.045459,35.5568266 187.656278,35.9659779 C188.267932,36.375941 189.082357,36.5805166 190.101223,36.5805166 C191.214382,36.5805166 192.077205,36.3499631 192.688858,35.8872325 C193.163661,35.5446494 193.40148,35.1160148 193.40148,34.6013284 C193.40148,34.0208856 193.088561,33.5727675 192.464391,33.2553506 C192.01629,33.0312915 190.827196,32.7544649 188.899612,32.4248708 C186.019084,31.9361624 184.019737,31.4839852 182.899902,31.0683395 C181.778399,30.6526937 180.834633,29.9496679 180.067772,28.959262 C179.300911,27.9696679 178.917063,26.8412546 178.917063,25.5740221 C178.917063,24.1874539 179.330951,22.9932841 180.159562,21.9898893 C180.987338,20.9873063 182.128034,20.2380074 183.581649,19.7428044 C185.035265,19.2484133 186.984544,19 189.428654,19 C192.00878,19 193.913834,19.1923985 195.142982,19.5747601 C196.372964,19.9587454 197.397671,20.5529889 198.219606,21.3591144 C199.041541,22.1652399 199.723288,23.2554982 200.267351,24.6290775 L192.403476,25.3824354 C192.199869,24.7086347 191.859413,24.2126199 191.38461,23.8960148 C190.732903,23.4730627 189.944346,23.2611808 189.021442,23.2611808 C188.084352,23.2611808 187.40177,23.4235424 186.974531,23.7466421 C186.545623,24.0705535 186.332003,24.461845 186.332003,24.9237638 C186.332003,25.4384502 186.604034,25.8281181 187.147263,26.0919557 C187.689656,26.3549815 188.87124,26.5928413 190.692015,26.8039114 C193.449044,27.1075277 195.500127,27.5296679 196.844429,28.0711439 C198.188731,28.6126199 199.217611,29.3838376 199.931067,30.3880443 C200.643689,31.3906273 201,32.4938745 201,33.6937269 C201,34.9081919 200.623662,36.0901845 199.869318,37.2380812 C199.116642,38.3867897 197.927548,39.3008856 196.305373,39.980369 C194.68153,40.6598524 192.471066,41 189.673149,41 C185.721184,41 182.906578,40.4520295 181.229329,39.3552768 C179.551246,38.258524 178.474803,36.6990406 178,34.6776384" id="Fill-19" fill="#FFFFFF"></path>
                    <path d="M214.201973,11 L214.201973,19.1339858 L218.699044,19.1339858 L218.699044,25.1344806 L214.201973,25.1344806 L214.201973,32.7093218 C214.201973,33.6214366 214.288313,34.2234654 214.462637,34.5187069 C214.730702,34.9731149 215.198582,35.2015559 215.867921,35.2015559 C216.470655,35.2015559 217.313496,35.0275449 218.398088,34.6786981 L219,40.3352943 C216.978826,40.7781565 215.091685,41 213.338575,41 C211.304245,41 209.805222,40.7385711 208.841505,40.2157132 C207.87861,39.6928554 207.16569,38.8986722 206.703567,37.8331638 C206.242265,36.7668307 206.011204,35.04074 206.011204,32.6548918 L206.011204,25.1344806 L203,25.1344806 L203,19.1339858 L206.011204,19.1339858 L206.011204,15.2084284 L214.201973,11 Z" id="Fill-21" fill="#FFFFFF"></path>
                    <path d="M237.585634,28.1369004 C237.423291,26.5782288 236.992874,25.4611808 236.294382,24.7873801 C235.596723,24.1135793 234.679277,23.776679 233.54121,23.776679 C232.226648,23.776679 231.175997,24.2856827 230.39009,25.3028782 C229.888907,25.9369004 229.570049,26.881845 229.435179,28.1369004 L237.585634,28.1369004 Z M246,32.0019188 L229.415199,32.0019188 C229.563389,33.2967528 229.923041,34.2611808 230.491658,34.895203 C231.290885,35.8068635 232.334044,36.2630996 233.621965,36.2630996 C234.435346,36.2630996 235.207932,36.0650185 235.938892,35.6680443 C236.386793,35.4180074 236.867162,34.9747601 237.382497,34.340738 L245.532951,35.0738007 C244.285824,37.1877491 242.781445,38.7042066 241.020647,39.6215498 C239.259016,40.5405166 236.732292,41 233.439642,41 C230.579906,41 228.330414,40.6062731 226.691165,39.8204428 C225.051084,39.0346125 223.69323,37.7860517 222.61677,36.0747601 C221.538646,34.3634686 221,32.3518081 221,30.0397786 C221,26.7495203 222.080622,24.0876015 224.242699,22.0523985 C226.40311,20.0180074 229.386893,19 233.195711,19 C236.285224,19 238.7237,19.4562362 240.512804,20.3678967 C242.301076,21.2795572 243.663092,22.6011808 244.598022,24.3319557 C245.532951,26.0627306 246,28.3154982 246,31.0902583 L246,32.0019188 Z" id="Fill-23" fill="#FFFFFF"></path>
                    <path d="M262.972565,29.7651538 C262.972565,28.0877203 262.624422,26.8350056 261.929748,26.0103087 C261.234268,25.1839624 260.355851,24.7716139 259.293693,24.7716139 C258.361282,24.7716139 257.58199,25.1682932 256.951787,25.9600022 C256.32239,26.7525359 256.007288,28.0811227 256.007288,29.9465871 C256.007288,31.6916458 256.332866,32.9699261 256.980799,33.7822525 C257.631149,34.5937543 258.433812,35.0003299 259.392011,35.0003299 C260.414681,35.0003299 261.267309,34.5912802 261.949089,33.7715315 C262.630869,32.9534321 262.972565,31.6174231 262.972565,29.7651538 L262.972565,29.7651538 Z M271,11 L271,40.5167276 L263.503644,40.5167276 L263.503644,37.3556643 C262.453574,38.6982709 261.496987,39.6046128 260.631465,40.0738654 C259.476629,40.6907387 258.19124,41 256.775298,41 C253.928101,41 251.754625,39.892432 250.252453,37.6781208 C248.751086,35.4629849 248,32.7719988 248,29.6043379 C248,26.0606152 248.829257,23.3498364 250.488577,21.4695274 C252.147898,19.5908679 254.256903,18.6507134 256.81398,18.6507134 C258.059881,18.6507134 259.192151,18.8659593 260.207568,19.2956264 C261.224597,19.7252935 262.126384,20.3693818 262.913735,21.2278912 L262.913735,11 L271,11 Z" id="Fill-25" fill="#FFFFFF"></path>
                    <polygon id="Fill-27" fill="#FFFFFF" points="10 59 17 59 17 60.9754997 14.6511841 60.9754997 14.6511841 67 12.3488159 67 12.3488159 60.9754997 10 60.9754997"></polygon>
                    <path d="M21.2086748,62.2417795 L22.135584,62.2417795 C22.2365345,62.2417795 22.4307877,62.2056738 22.7183437,62.1326026 C22.864416,62.0999355 22.9829564,62.0156888 23.0754944,61.8815818 C23.1672676,61.7474747 23.2139189,61.5918762 23.2139189,61.4173651 C23.2139189,61.159467 23.1405004,60.9617451 22.9951928,60.8233398 C22.8498853,60.6840748 22.5760953,60.615302 22.1745876,60.615302 L21.2086748,60.615302 L21.2086748,62.2417795 Z M19,67 L19,59 L22.6648094,59 C23.3446957,59 23.863979,59.0661939 24.223424,59.1968622 C24.582869,59.3275306 24.8727193,59.5708145 25.0922102,59.9258543 C25.3124659,60.2800344 25.4225937,60.7124436 25.4225937,61.2213626 C25.4225937,61.6649473 25.3384683,62.0474962 25.1702174,62.3698689 C25.0012018,62.6913819 24.7702393,62.9527187 24.4750355,63.1538792 C24.2876652,63.2802493 24.0299355,63.3859875 23.7026112,63.4693746 C23.9649295,63.5682355 24.1561237,63.6662368 24.2754288,63.7642381 C24.3564951,63.830432 24.473506,63.9705566 24.627226,64.1854717 C24.7809461,64.4003868 24.8834262,64.5654417 24.935431,64.6823555 L26,67 L23.5152409,67 L22.3397793,64.5551257 C22.1906479,64.2387707 22.0583415,64.0333118 21.9413307,63.9396089 C21.783022,63.8149581 21.6032995,63.7530625 21.402928,63.7530625 L21.2086748,63.7530625 L21.2086748,67 L19,67 Z" id="Fill-29" fill="#FFFFFF"></path>
                    <path d="M31.7837331,63.9490651 L30.9727569,61.073501 L30.1704669,63.9490651 L31.7837331,63.9490651 Z M32.2551574,65.6795616 L29.6769322,65.6795616 L29.3184286,67 L27,67 L29.762215,59 L32.2393643,59 L35,67 L32.6223473,67 L32.2551574,65.6795616 Z" id="Fill-31" fill="#FFFFFF"></path>
                    <path d="M39.3505022,60.8114992 L39.3505022,65.1833423 L39.9268862,65.1833423 C40.4182434,65.1833423 40.7673441,65.1257389 40.9750058,65.0113917 C41.1826676,64.8961848 41.3445457,64.6967222 41.4622752,64.4112843 C41.5808222,64.1249866 41.6388694,63.6615798 41.6388694,63.0219237 C41.6388694,62.1742074 41.5080589,61.5938743 41.2448026,61.2809242 C40.9815464,60.9679742 40.5457837,60.8114992 39.936697,60.8114992 L39.3505022,60.8114992 Z M37,59 L40.4918243,59 C41.1810325,59 41.7369773,59.0980118 42.1604765,59.2940355 C42.5847933,59.4909189 42.9347115,59.7729178 43.2118664,60.140892 C43.4882037,60.5071467 43.6893249,60.9353036 43.813595,61.4227834 C43.937865,61.9102633 44,62.4269747 44,62.9729178 C44,63.8275121 43.907615,64.4903815 43.7228451,64.9615261 C43.5380752,65.4326706 43.2805419,65.8281569 42.9518804,66.1462654 C42.6232189,66.464374 42.2708479,66.6758732 41.8931324,66.7816228 C41.3780659,66.926921 40.9112357,67 40.4918243,67 L37,67 L37,59 Z" id="Fill-33" fill="#FFFFFF"></path>
                    <polygon id="Fill-35" fill="#FFFFFF" points="47 59 52.8929391 59 52.8929391 60.7081453 49.2039256 60.7081453 49.2039256 61.9795831 52.6260515 61.9795831 52.6260515 63.6112186 49.2039256 63.6112186 49.2039256 65.1878358 53 65.1878358 53 67 47 67"></polygon>
                    <path d="M62.1945289,62.4111326 L62.7302432,62.4111326 C63.1512158,62.4111326 63.4468085,62.3277455 63.6177812,62.1626907 C63.7879939,61.9976359 63.8731003,61.7844401 63.8731003,61.526542 C63.8731003,61.2763808 63.7993921,61.063185 63.6512158,60.888674 C63.5030395,60.7133032 63.224924,60.6264775 62.8168693,60.6264775 L62.1945289,60.6264775 L62.1945289,62.4111326 Z M60,59 L63.6322188,59 C64.4232523,59 65.0151976,59.2123361 65.4095745,59.6387277 C65.8031915,60.0642596 66,60.6703202 66,61.4560499 C66,62.263271 65.7857143,62.8942618 65.356383,63.3498818 C64.9270517,63.8037825 64.2720365,64.0315925 63.3905775,64.0315925 L62.1945289,64.0315925 L62.1945289,67 L60,67 L60,59 Z" id="Fill-37" fill="#FFFFFF"></path>
                    <path d="M71.2086748,62.2417795 L72.135584,62.2417795 C72.2365345,62.2417795 72.4307877,62.2056738 72.7183437,62.1326026 C72.864416,62.0999355 72.9829564,62.0156888 73.0754944,61.8815818 C73.1672676,61.7474747 73.2139189,61.5918762 73.2139189,61.4173651 C73.2139189,61.159467 73.1405004,60.9617451 72.9951928,60.8233398 C72.8498853,60.6840748 72.5760953,60.615302 72.1745876,60.615302 L71.2086748,60.615302 L71.2086748,62.2417795 Z M69,67 L69,59 L72.6648094,59 C73.3446957,59 73.863979,59.0661939 74.223424,59.1968622 C74.582869,59.3275306 74.8727193,59.5708145 75.0922102,59.9258543 C75.3124659,60.2800344 75.4225937,60.7124436 75.4225937,61.2213626 C75.4225937,61.6649473 75.3384683,62.0474962 75.1702174,62.3698689 C75.0012018,62.6913819 74.7702393,62.9527187 74.4750355,63.1538792 C74.2876652,63.2802493 74.0299355,63.3859875 73.7026112,63.4693746 C73.9649295,63.5682355 74.1561237,63.6662368 74.2754288,63.7642381 C74.3564951,63.830432 74.473506,63.9705566 74.627226,64.1854717 C74.7809461,64.4003868 74.8834262,64.5654417 74.935431,64.6823555 L76,67 L73.5152409,67 L72.3397793,64.5551257 C72.1906479,64.2387707 72.0583415,64.0333118 71.9413307,63.9396089 C71.783022,63.8149581 71.6032995,63.7530625 71.402928,63.7530625 L71.2086748,63.7530625 L71.2086748,67 L69,67 Z" id="Fill-39" fill="#FFFFFF"></path>
                    <polygon id="Fill-41" fill="#FFFFFF" points="77 67 79 67 79 59 77 59"></polygon>
                    <path d="M87.0512594,63.702068 L89,64.3355502 C88.8693106,64.9233087 88.6628369,65.4138003 88.3813522,65.8078562 C88.0998674,66.2019121 87.7503314,66.498701 87.3335175,66.6990543 C86.9159302,66.900239 86.3854397,67 85.7404993,67 C84.9586832,67 84.3199293,66.8777928 83.8234644,66.6333784 C83.3285462,66.3889639 82.9001326,65.9599917 82.5405435,65.3447989 C82.1801812,64.7287748 82,63.9414943 82,62.9821262 C82,61.7018601 82.317057,60.718383 82.9496244,60.0308636 C83.5837384,59.3441754 84.4792311,59 85.6376491,59 C86.5439682,59 87.2569598,59.197028 87.7758506,59.5910839 C88.2939682,59.9851398 88.6790764,60.5903564 88.9311754,61.4059025 L86.9677419,61.8764419 C86.8989174,61.6411722 86.8269996,61.4674218 86.7519885,61.3593474 C86.6274856,61.1764522 86.4751436,61.0351242 86.2949624,60.9370259 C86.1155546,60.8389276 85.9137207,60.7890471 85.6917808,60.7890471 C85.1875829,60.7890471 84.8017013,61.0068586 84.5333628,61.4424816 C84.3299823,61.7658734 84.2286787,62.2738231 84.2286787,62.9654993 C84.2286787,63.8234438 84.3500884,64.4112023 84.5921343,64.7287748 C84.8341803,65.0471786 85.1744366,65.2059649 85.6129032,65.2059649 C86.0382236,65.2059649 86.3599205,65.0771069 86.5779938,64.8210537 C86.7952939,64.5641692 86.953049,64.1908968 87.0512594,63.702068" id="Fill-43" fill="#FFFFFF"></path>
                    <polygon id="Fill-44" fill="#FFFFFF" points="92 59 97.8929391 59 97.8929391 60.7081453 94.2039256 60.7081453 94.2039256 61.9795831 97.6260515 61.9795831 97.6260515 63.6112186 94.2039256 63.6112186 94.2039256 65.1878358 98 65.1878358 98 67 92 67"></polygon>
                    <path d="M100,64.3097787 L102.268657,64.1667879 C102.317579,64.5359036 102.41791,64.8177284 102.568823,65.0114309 C102.814262,65.3248467 103.165008,65.4803076 103.621061,65.4803076 C103.961857,65.4803076 104.223881,65.4004988 104.40796,65.2408812 C104.592869,65.0812636 104.68408,64.8950431 104.68408,64.6838824 C104.68408,64.483529 104.596186,64.3039593 104.421227,64.1460044 C104.246269,63.9872181 103.838308,63.838408 103.199834,63.6979113 C102.154229,63.4609789 101.408789,63.1492258 100.963516,62.7576639 C100.514096,62.3677647 100.289386,61.8689598 100.289386,61.2645745 C100.289386,60.8663618 100.404643,60.4914268 100.634328,60.1372753 C100.864013,59.7847864 101.209784,59.506287 101.670813,59.304271 C102.13267,59.1014237 102.764511,59 103.568823,59 C104.554726,59 105.30597,59.1845578 105.824212,59.5520108 C106.341625,59.9202951 106.649254,60.5047283 106.747927,61.3069729 L104.5,61.4391562 C104.440299,61.0899927 104.315091,60.8364335 104.123549,60.67931 C103.932836,60.5196924 103.668325,60.4415463 103.331675,60.4415463 C103.054726,60.4415463 102.845771,60.5005715 102.705638,60.6186221 C102.564677,60.7358412 102.495025,60.878832 102.495025,61.0475943 C102.495025,61.1714642 102.553068,61.2820326 102.668325,61.3809623 C102.781095,61.4832173 103.047264,61.5779902 103.468491,61.6652811 C104.510779,61.8905747 105.257048,62.1183623 105.708126,62.3494752 C106.159204,62.5797568 106.487562,62.8657383 106.692371,63.2065884 C106.89801,63.5474384 107,63.9298556 107,64.3521771 C107,64.8468253 106.863184,65.3048945 106.589552,65.7238907 C106.31592,66.1420555 105.933665,66.459628 105.441957,66.6766081 C104.951078,66.8919256 104.331675,67 103.584577,67 C102.271973,67 101.363184,66.7472722 100.858209,66.2401538 C100.352405,65.7338668 100.067164,65.0904084 100,64.3097787" id="Fill-45" fill="#FFFFFF"></path>
                    <path d="M116.350502,60.8114992 L116.350502,65.1833423 L116.926886,65.1833423 C117.418243,65.1833423 117.767344,65.1257389 117.975006,65.0113917 C118.182668,64.8961848 118.344546,64.6967222 118.462275,64.4112843 C118.580822,64.1249866 118.638869,63.6615798 118.638869,63.0219237 C118.638869,62.1742074 118.508059,61.5938743 118.244803,61.2809242 C117.981546,60.9679742 117.545784,60.8114992 116.936697,60.8114992 L116.350502,60.8114992 Z M114,59 L117.491824,59 C118.181032,59 118.736977,59.0980118 119.160477,59.2940355 C119.584793,59.4909189 119.934712,59.7729178 120.211866,60.140892 C120.488204,60.5071467 120.689325,60.9353036 120.813595,61.4227834 C120.937865,61.9102633 121,62.4269747 121,62.9729178 C121,63.8275121 120.907615,64.4903815 120.722845,64.9615261 C120.538075,65.4326706 120.280542,65.8281569 119.95188,66.1462654 C119.623219,66.464374 119.270848,66.6758732 118.893132,66.7816228 C118.378066,66.926921 117.911236,67 117.491824,67 L114,67 L114,59 Z" id="Fill-46" fill="#FFFFFF"></path>
                    <polygon id="Fill-47" fill="#FFFFFF" points="123 59 128.892939 59 128.892939 60.7081453 125.203926 60.7081453 125.203926 61.9795831 128.626051 61.9795831 128.626051 63.6112186 125.203926 63.6112186 125.203926 65.1878358 129 65.1878358 129 67 123 67"></polygon>
                    <polygon id="Fill-48" fill="#FFFFFF" points="132 59 134.342795 59 134.342795 65.0305179 138 65.0305179 138 67 132 67"></polygon>
                    <polygon id="Fill-49" fill="#FFFFFF" points="140 67 142 67 142 59 140 59"></polygon>
                    <polygon id="Fill-50" fill="#FFFFFF" points="144 59 146.384059 59 148.045603 64.7562863 149.684941 59 152 59 149.259839 67 146.787747 67"></polygon>
                    <polygon id="Fill-51" fill="#FFFFFF" points="154 59 159.892939 59 159.892939 60.7081453 156.203926 60.7081453 156.203926 61.9795831 159.626051 61.9795831 159.626051 63.6112186 156.203926 63.6112186 156.203926 65.1878358 160 65.1878358 160 67 154 67"></polygon>
                    <path d="M164.208433,62.2417795 L165.136006,62.2417795 C165.236181,62.2417795 165.430413,62.2056738 165.718702,62.1326026 C165.863994,62.0999355 165.982521,62.0156888 166.075049,61.8815818 C166.167577,61.7474747 166.213459,61.5918762 166.213459,61.4173651 C166.213459,61.159467 166.140048,60.9617451 165.994756,60.8233398 C165.849465,60.6840748 165.575705,60.615302 165.175005,60.615302 L164.208433,60.615302 L164.208433,62.2417795 Z M162,67 L162,59 L165.664409,59 C166.344221,59 166.864212,59.0661939 167.222853,59.1968622 C167.582259,59.3275306 167.872078,59.5708145 168.091545,59.9258543 C168.311776,60.2800344 168.421892,60.7124436 168.421892,61.2213626 C168.421892,61.6649473 168.337776,62.0474962 168.169543,62.3698689 C168.001311,62.6913819 167.769609,62.9527187 167.474437,63.1538792 C167.287088,63.2802493 167.029386,63.3859875 166.702862,63.4693746 C166.964387,63.5682355 167.15556,63.6662368 167.274853,63.7642381 C167.35591,63.830432 167.473673,63.9705566 167.626611,64.1854717 C167.780315,64.4003868 167.883548,64.5654417 167.934783,64.6823555 L169,67 L166.515512,67 L165.339414,64.5551257 C165.190299,64.2387707 165.058007,64.0333118 164.941774,63.9396089 C164.782718,63.8149581 164.60378,63.7530625 164.402666,63.7530625 L164.208433,63.7530625 L164.208433,67 L162,67 Z" id="Fill-52" fill="#FFFFFF"></path>
                    <polygon id="Fill-53" fill="#FFFFFF" points="172 59 177.892939 59 177.892939 60.7081453 174.203926 60.7081453 174.203926 61.9795831 177.625287 61.9795831 177.625287 63.6112186 174.203926 63.6112186 174.203926 65.1878358 178 65.1878358 178 67 172 67"></polygon>
                    <path d="M182.350502,60.8114992 L182.350502,65.1833423 L182.926886,65.1833423 C183.418243,65.1833423 183.767344,65.1257389 183.975006,65.0113917 C184.182668,64.8961848 184.344546,64.6967222 184.463093,64.4112843 C184.580822,64.1249866 184.639687,63.6615798 184.639687,63.0219237 C184.639687,62.1742074 184.508059,61.5938743 184.244803,61.2809242 C183.981546,60.9679742 183.545784,60.8114992 182.937515,60.8114992 L182.350502,60.8114992 Z M180,59 L183.491824,59 C184.181032,59 184.736977,59.0980118 185.161294,59.2940355 C185.584793,59.4909189 185.935529,59.7729178 186.211866,60.140892 C186.489021,60.5071467 186.689325,60.9353036 186.813595,61.4227834 C186.937865,61.9102633 187,62.4269747 187,62.9729178 C187,63.8275121 186.907615,64.4903815 186.723663,64.9615261 C186.538075,65.4326706 186.281359,65.8281569 185.95188,66.1462654 C185.624036,66.464374 185.270848,66.6758732 184.893132,66.7816228 C184.378066,66.926921 183.911236,67 183.491824,67 L180,67 L180,59 Z" id="Fill-54" fill="#FFFFFF"></path>
                    <polygon id="Fill-55" fill="#FFFFFF" points="194 59 196.112035 59 198.867513 63.4255319 198.867513 59 201 59 201 67 198.867513 67 196.126981 62.6071352 196.126981 67 194 67"></polygon>
                    <path d="M207.783733,63.9490651 L206.972757,61.073501 L206.169677,63.9490651 L207.783733,63.9490651 Z M208.254368,65.6795616 L205.676143,65.6795616 L205.318429,67 L203,67 L205.761425,59 L208.238575,59 L211,67 L208.622347,67 L208.254368,65.6795616 Z" id="Fill-56" fill="#FFFFFF"></path>
                    <polygon id="Fill-57" fill="#FFFFFF" points="212 59 219 59 219 60.9754997 216.651716 60.9754997 216.651716 67 214.348284 67 214.348284 60.9754997 212 60.9754997"></polygon>
                    <polygon id="Fill-58" fill="#FFFFFF" points="221 67 223 67 223 59 221 59"></polygon>
                    <path d="M227.385979,63.0162112 C227.385979,63.7968409 227.531163,64.3579965 227.819869,64.6988465 C228.110235,65.0413592 228.504304,65.2117843 229.002074,65.2117843 C229.514778,65.2117843 229.912164,65.0438533 230.193405,64.7104853 C230.473815,64.376286 230.61485,63.7760574 230.61485,62.9106308 C230.61485,62.1823756 230.468008,61.6503169 230.174323,61.314455 C229.881468,60.978593 229.483252,60.810662 228.981334,60.810662 C228.500985,60.810662 228.114383,60.981087 227.822358,61.321937 C227.531992,61.6636184 227.385979,62.2280993 227.385979,63.0162112 M225,63.0054037 C225,61.7425959 225.351758,60.7591188 226.053614,60.0549725 C226.75547,59.3524888 227.733589,59 228.987141,59 C230.272218,59 231.261952,59.3458381 231.957171,60.0375143 C232.65239,60.7283591 233,61.6968721 233,62.9422218 C233,63.8467214 232.84818,64.5882781 232.54454,65.1668918 C232.2409,65.7455056 231.801203,66.1952614 231.227937,66.5178219 C230.653013,66.8395511 229.937882,67 229.081717,67 C228.210619,67 227.490511,66.861166 226.919735,66.5834979 C226.349787,66.3058298 225.886861,65.8660501 225.532614,65.2641588 C225.177538,64.6622675 225,63.9099034 225,63.0054037" id="Fill-59" fill="#FFFFFF"></path>
                    <polygon id="Fill-60" fill="#FFFFFF" points="236 59 238.112584 59 240.867753 63.4255319 240.867753 59 243 59 243 67 240.867753 67 238.127528 62.6071352 238.127528 67 236 67"></polygon>
                    <polygon id="Fill-61" fill="#FFFFFF" points="245 59 247.306629 59 248.138029 63.4788309 249.353867 59 251.652892 59 252.87211 63.4719536 253.704355 59 256 59 254.266226 67 251.883555 67 250.505492 61.9623899 249.131654 67 246.748982 67"></polygon>
                    <polygon id="Fill-62" fill="#FFFFFF" points="257 67 259 67 259 59 257 59"></polygon>
                    <path d="M264.350502,60.8114992 L264.350502,65.1833423 L264.926886,65.1833423 C265.418243,65.1833423 265.767344,65.1257389 265.975006,65.0113917 C266.182668,64.8961848 266.345363,64.6967222 266.463093,64.4112843 C266.580822,64.1249866 266.639687,63.6615798 266.639687,63.0219237 C266.639687,62.1742074 266.508059,61.5938743 266.244803,61.2809242 C265.982364,60.9679742 265.546601,60.8114992 264.937515,60.8114992 L264.350502,60.8114992 Z M262,59 L265.491824,59 C266.181032,59 266.736977,59.0980118 267.161294,59.2940355 C267.584793,59.4909189 267.935529,59.7729178 268.211866,60.140892 C268.489021,60.5071467 268.689325,60.9353036 268.813595,61.4227834 C268.937865,61.9102633 269,62.4269747 269,62.9729178 C269,63.8275121 268.908433,64.4903815 268.723663,64.9615261 C268.538075,65.4326706 268.281359,65.8281569 267.952698,66.1462654 C267.624036,66.464374 267.270848,66.6758732 266.89395,66.7816228 C266.378066,66.926921 265.911236,67 265.491824,67 L262,67 L262,59 Z" id="Fill-63" fill="#FFFFFF"></path>
                    <polygon id="Fill-64" fill="#FFFFFF" points="272 59 277.893704 59 277.893704 60.7081453 274.20469 60.7081453 274.20469 61.9795831 277.626051 61.9795831 277.626051 63.6112186 274.20469 63.6112186 274.20469 65.1878358 278 65.1878358 278 67 272 67"></polygon>
                </g>
            </g>
        </g>
    </g>
</svg>