<?xml version="1.0" encoding="UTF-8" standalone="no"?>
<svg width="640px" height="640px" viewBox="0 0 640 640" version="1.1" xmlns="http://www.w3.org/2000/svg" xmlns:xlink="http://www.w3.org/1999/xlink">
    <!-- Generator: Sketch 3.7 (28169) - http://www.bohemiancoding.com/sketch -->
    <title>android-cart</title>
    <desc>Created with Sketch.</desc>
    <defs></defs>
    <g id="Page-1" stroke="none" stroke-width="1" fill="none" fill-rule="evenodd">
        <g id="android-cart" fill="#010101">
            <g transform="translate(40.000000, 40.000000)" id="Layer_1">
                <g>
                    <path d="M166.323077,446.88439 C135.025341,446.88439 109.423077,472.496093 109.423077,503.806734 C109.423077,535.116007 135.025341,560.72771 166.323077,560.72771 C197.620812,560.72771 223.224445,535.116007 223.224445,503.806734 C223.223077,472.494724 197.619445,446.88439 166.323077,446.88439 L166.323077,446.88439 Z M0,0.273658537 L0,57.1946341 L56.9,57.1946341 L159.324103,264.740005 L116.501382,334.45999 C112.236618,341.575112 109.388882,351.53902 109.388882,361.504295 C109.388882,399.611246 135.411058,418.425271 170.7,418.425271 L503.346154,418.425271 L503.346154,363.693563 L177.666147,363.693563 C173.401382,363.693563 170.553647,360.844778 170.553647,356.578441 C170.553647,355.16089 173.572356,349.46332 173.572356,349.46332 L201.997736,304.58332 L413.942029,304.58332 C435.280897,304.58332 453.782971,293.203229 463.729529,274.70528 L566.152264,98.4691829 C567.844219,95.1018146 569,89.9228268 569,84.2403073 C569,68.5788293 556.192029,57.1960024 540.55,57.1960024 L119.495471,57.1960024 L92.4625,0.273658537 L0,0.273658537 L0,0.273658537 Z M446.444786,446.88439 C415.14705,446.88439 389.544786,472.496093 389.544786,503.806734 C389.544786,535.116007 415.14705,560.72771 446.444786,560.72771 C477.742522,560.72771 503.346154,535.114639 503.346154,503.805366 C503.346154,472.494724 477.742522,446.88439 446.444786,446.88439 L446.444786,446.88439 Z" id="Shape"></path>
                </g>
            </g>
        </g>
    </g>
</svg>