<?xml version="1.0" encoding="UTF-8" standalone="no"?>
<svg width="640px" height="640px" viewBox="0 0 640 640" version="1.1" xmlns="http://www.w3.org/2000/svg" xmlns:xlink="http://www.w3.org/1999/xlink" xmlns:sketch="http://www.bohemiancoding.com/sketch/ns">
    <!-- Generator: Sketch 3.5.1 (25234) - http://www.bohemiancoding.com/sketch -->
    <title>caret-down</title>
    <desc>Created with Sketch.</desc>
    <defs></defs>
    <g id="Page-1" stroke="none" stroke-width="1" fill="none" fill-rule="evenodd" sketch:type="MSPage">
        <g id="caret-down" sketch:type="MSArtboardGroup" fill="#000000">
            <path d="M599.99991,235.003822 C599.99991,244.477006 596.53934,252.684377 589.618199,259.625934 L344.622066,504.622066 C337.700926,511.543207 329.493555,515.003778 319.999955,515.003778 C310.506355,515.003778 302.298985,511.543207 295.377844,504.622066 L50.3817111,259.625934 C43.4605704,252.704793 40,244.497423 40,235.003822 C40,225.510222 43.4605704,217.302852 50.3817111,210.381711 C57.3028519,203.46057 65.5102223,200 75.0038225,200 L564.996088,200 C574.469272,200 582.676642,203.46057 589.618199,210.381711 C596.559756,217.302852 600.020327,225.510222 599.99991,235.003822 L599.99991,235.003822 Z" id="Shape" sketch:type="MSShapeGroup"></path>
        </g>
    </g>
</svg>