<?xml version="1.0" encoding="UTF-8" standalone="no"?>
<svg width="640px" height="640px" viewBox="0 0 640 640" version="1.1" xmlns="http://www.w3.org/2000/svg" xmlns:xlink="http://www.w3.org/1999/xlink">
    <!-- Generator: Sketch 3.7 (28169) - http://www.bohemiancoding.com/sketch -->
    <title>ios-location</title>
    <desc>Created with Sketch.</desc>
    <defs></defs>
    <g id="Page-1" stroke="none" stroke-width="1" fill="none" fill-rule="evenodd">
        <g id="ios-location" fill="#000000">
            <g transform="translate(128.000000, 42.000000)" id="Layer_1">
                <g>
                    <path d="M192.5,0 C86.185191,0 0,86.0572723 0,192.214286 C0,341.714286 192.5,598 192.5,598 C192.5,598 385,341.714286 385,192.214286 C385,86.0572723 298.814809,0 192.5,0 L192.5,0 Z M192.5,254.817411 C157.876736,254.817411 129.803819,226.786161 129.803819,192.214286 C129.803819,157.642411 157.876736,129.611161 192.5,129.611161 C227.123264,129.611161 255.196181,157.642411 255.196181,192.214286 C255.196181,226.786161 227.123264,254.817411 192.5,254.817411 L192.5,254.817411 Z" id="Shape"></path>
                </g>
            </g>
        </g>
    </g>
</svg>