<?xml version="1.0" encoding="UTF-8" standalone="no"?>
<svg width="640px" height="640px" viewBox="0 0 640 640" version="1.1" xmlns="http://www.w3.org/2000/svg" xmlns:xlink="http://www.w3.org/1999/xlink" xmlns:sketch="http://www.bohemiancoding.com/sketch/ns">
    <!-- Generator: Sketch 3.5.1 (25234) - http://www.bohemiancoding.com/sketch -->
    <title>layered-nav-pump</title>
    <desc>Created with Sketch.</desc>
    <defs></defs>
    <g id="Page-1" stroke="none" stroke-width="1" fill="none" fill-rule="evenodd" sketch:type="MSPage">
        <g id="layered-nav-pump" sketch:type="MSArtboardGroup" fill="#000000">
            <path d="M572.162534,444 C580.165289,404 572.162534,368 552.155647,344 C528.147383,316 492.134986,300 440.11708,300 L440.11708,280 C440.11708,256 424.11157,240 400.103306,240 L360.089532,240 L360.089532,120 L440.11708,120 C460.123967,120 480.130854,104 480.130854,80 L480.130854,80 C480.130854,60 464.125344,40 440.11708,40 L200.034435,40 C176.026171,40 160.020661,56 160.020661,80 L160.020661,80 C160.020661,100 176.026171,120 200.034435,120 L280.061983,120 L280.061983,240 L240.048209,240 C216.039945,240 200.034435,256 200.034435,280 L200.034435,300 C144.015152,300 100,344 100,400 C100,456 144.015152,500 200.034435,500 L200.034435,520 L172.024793,520 C164.022039,520 156.019284,524 156.019284,532 L136.012397,572 C128.009642,584 136.012397,600 152.017906,600 L200.034435,600 L440.11708,600 L488.133609,600 C504.139118,600 512.141873,584 504.139118,572 L484.132231,532 C480.130854,524 472.128099,520 468.126722,520 L440.11708,520 L440.11708,340 C468.126722,340 500.137741,344 520.144628,368 C532.14876,384 536.150138,404 532.14876,432 L524.146006,428 L508.140496,488 L568.161157,504 L584.166667,444 L572.162534,444 L572.162534,444 Z M140.013774,400 C140.013774,368 168.023416,340 200.034435,340 L200.034435,460 C168.023416,460 140.013774,432 140.013774,400 L140.013774,400 Z" id="Shape" sketch:type="MSShapeGroup"></path>
        </g>
    </g>
</svg>