<?xml version="1.0" encoding="UTF-8" standalone="no"?>
<svg width="640px" height="640px" viewBox="0 0 640 640" version="1.1" xmlns="http://www.w3.org/2000/svg" xmlns:xlink="http://www.w3.org/1999/xlink" xmlns:sketch="http://www.bohemiancoding.com/sketch/ns">
    <!-- Generator: Sketch 3.5.1 (25234) - http://www.bohemiancoding.com/sketch -->
    <title>layered-nav-weight</title>
    <desc>Created with Sketch.</desc>
    <defs></defs>
    <g id="Page-1" stroke="none" stroke-width="1" fill="none" fill-rule="evenodd" sketch:type="MSPage">
        <g id="layered-nav-weight" sketch:type="MSArtboardGroup" fill="#000000">
            <path d="M600,514.133333 L521.6,252.8 C510.4,222.933333 495.466667,189.333333 450.666667,189.333333 L372.266667,189.333333 C390.933333,174.4 402.133333,152 402.133333,122.133333 C405.866667,77.3333333 364.8,40 320,40 C275.2,40 234.133333,77.3333333 234.133333,122.133333 C234.133333,152 249.066667,174.4 267.733333,189.333333 L196.8,189.333333 C159.466667,189.333333 129.6,211.733333 118.4,252.8 L40,514.133333 C40,514.133333 40,514.133333 40,517.866667 L40,592.533333 C40,596.266667 43.7333333,600 51.2,600 L592.533333,600 C596.266667,600 600,596.266667 600,592.533333 L600,514.133333 L600,514.133333 L600,514.133333 Z M249.066667,379.733333 L249.066667,439.466667 L237.866667,439.466667 L237.866667,320 L249.066667,320 L249.066667,379.733333 L249.066667,379.733333 Z M297.6,439.466667 L252.8,383.466667 C252.8,379.733333 249.066667,379.733333 249.066667,379.733333 C249.066667,379.733333 249.066667,376 252.8,372.266667 L297.6,320 L312.533333,320 L264,376 L316.266667,435.733333 L297.6,435.733333 L297.6,439.466667 Z M402.133333,342.4 C390.933333,338.666667 383.466667,334.933333 372.266667,334.933333 C357.333333,334.933333 349.866667,338.666667 338.666667,346.133333 C331.2,357.333333 327.466667,368.533333 327.466667,383.466667 C327.466667,398.4 331.2,409.6 338.666667,417.066667 C346.133333,424.533333 353.6,428.266667 368.533333,428.266667 C376,428.266667 390.933333,428.266667 390.933333,424.533333 L390.933333,390.933333 L368.533333,390.933333 L368.533333,379.733333 L402.133333,379.733333 L402.133333,432 C390.933333,439.466667 379.733333,443.2 364.8,443.2 C349.866667,443.2 338.666667,439.466667 327.466667,428.266667 C320,413.333333 316.266667,398.4 316.266667,383.466667 C316.266667,364.8 323.733333,349.866667 334.933333,338.666667 C346.133333,327.466667 357.333333,320 376,320 C387.2,320 394.666667,323.733333 405.866667,327.466667 L405.866667,342.4 L402.133333,342.4 Z" id="Shape" sketch:type="MSShapeGroup"></path>
        </g>
    </g>
</svg>