<?xml version="1.0" encoding="UTF-8" standalone="no"?>
<svg width="640px" height="640px" viewBox="0 0 640 640" version="1.1" xmlns="http://www.w3.org/2000/svg" xmlns:xlink="http://www.w3.org/1999/xlink" xmlns:sketch="http://www.bohemiancoding.com/sketch/ns">
    <!-- Generator: Sketch 3.5.1 (25234) - http://www.bohemiancoding.com/sketch -->
    <title>layered-nav-phase</title>
    <desc>Created with Sketch.</desc>
    <defs></defs>
    <g id="Page-1" stroke="none" stroke-width="1" fill="none" fill-rule="evenodd" sketch:type="MSPage">
        <g id="layered-nav-phase" sketch:type="MSArtboardGroup" fill="#000000">
            <g id="Group" sketch:type="MSLayerGroup" transform="translate(40.000000, 80.000000)">
                <circle id="Oval" sketch:type="MSShapeGroup" cx="122.5" cy="122.5" r="122.5"></circle>
                <circle id="Oval" sketch:type="MSShapeGroup" cx="437.5" cy="122.5" r="122.5"></circle>
                <circle id="Oval" sketch:type="MSShapeGroup" cx="280" cy="402.5" r="122.5"></circle>
            </g>
        </g>
    </g>
</svg>