<?xml version="1.0" encoding="UTF-8" standalone="no"?>
<svg width="640px" height="640px" viewBox="0 0 640 640" version="1.1" xmlns="http://www.w3.org/2000/svg" xmlns:xlink="http://www.w3.org/1999/xlink">
    <!-- Generator: Sketch 3.7 (28169) - http://www.bohemiancoding.com/sketch -->
    <title>person</title>
    <desc>Created with Sketch.</desc>
    <defs></defs>
    <g id="Page-1" stroke="none" stroke-width="1" fill="none" fill-rule="evenodd">
        <g id="person" fill="#000000">
            <g transform="translate(40.000000, 40.000000)" id="Layer_1">
                <g>
                    <path d="M560,560 C560,560 560,521.5 556.791667,501.375 C554.166667,485.479167 532.145833,464.479167 438.520833,430.0625 C346.354167,396.229167 352.041667,412.708333 352.041667,350.4375 C352.041667,310.041667 372.604167,333.520833 385.729167,256.8125 C390.833333,226.625 394.916667,246.75 406,198.333333 C411.833333,172.958333 402.0625,171.0625 403.229167,158.958333 C404.395833,146.854167 405.5625,136.0625 407.75,111.270833 C410.375,80.6458333 381.9375,0 280,0 C178.0625,0 149.625,80.6458333 152.395833,111.416667 C154.583333,136.0625 155.75,147 156.916667,159.104167 C158.083333,171.208333 148.3125,173.104167 154.145833,198.479167 C165.229167,246.75 169.3125,226.625 174.416667,256.958333 C187.541667,333.666667 208.104167,310.1875 208.104167,350.583333 C208.104167,413 213.791667,396.520833 121.625,430.208333 C28,464.479167 5.83333333,485.625 3.35416667,501.520833 C0,521.5 0,560 0,560 L280,560 L560,560 L560,560 Z" id="Shape"></path>
                </g>
            </g>
        </g>
    </g>
</svg>